<svg width="54" height="97" viewBox="0 0 54 97" fill="none" xmlns="http://www.w3.org/2000/svg">
<path d="M53.612 0L53.6082 12.3728C53.6043 20.4529 48.639 27.6824 41.1508 30.5104L26.5699 36.0189L26.566 36.0151L12.3768 30.3551C12.3729 30.3551 12.3729 30.3512 12.3691 30.3512C7.5382 28.4166 7.21947 21.6222 11.7623 19.2603C11.8775 19.206 11.9889 19.1477 12.1041 19.0933L53.612 0Z" fill="url(#paint0_linear_675_1671)"/>
<path d="M42.1259 78.316C42.1835 78.2927 42.2334 78.2694 42.2872 78.2422C42.1873 78.2888 42.0837 78.3315 41.98 78.3743C42.0299 78.3548 42.076 78.3354 42.1259 78.316Z" fill="url(#paint1_linear_675_1671)"/>
<path d="M46.4578 71.7002C46.4578 71.8633 46.454 72.0265 46.4425 72.1896C46.4194 72.5509 46.3695 72.9122 46.2927 73.2696C46.2812 73.324 46.2696 73.3822 46.2543 73.4366C46.189 73.7241 46.1045 74.0038 46.0008 74.2757C45.974 74.3418 45.9471 74.4117 45.9202 74.4816C45.8588 74.6331 45.7935 74.7846 45.7167 74.9361C45.6975 74.9827 45.6706 75.0332 45.6475 75.076C45.6437 75.0837 45.6399 75.0915 45.636 75.0954C45.6053 75.1576 45.5707 75.2197 45.5362 75.278C45.5016 75.344 45.4632 75.4062 45.4248 75.4722C45.348 75.6004 45.2674 75.7247 45.1829 75.849C45.1407 75.9112 45.0984 75.9695 45.0523 76.0316C45.0101 76.0938 44.964 76.152 44.9141 76.2103C44.8795 76.2569 44.8411 76.3035 44.8027 76.3463C44.7874 76.3657 44.772 76.3851 44.7528 76.4045C44.7106 76.455 44.6645 76.5056 44.6184 76.5561C44.5685 76.6143 44.5147 76.6687 44.4609 76.7231C44.4072 76.7775 44.3534 76.8319 44.2997 76.8824C44.2574 76.9251 44.2152 76.9639 44.1729 76.9989C44.1192 77.0533 44.0616 77.0999 44.004 77.1504C43.7505 77.3718 43.474 77.5738 43.1783 77.7603C43.1591 77.772 43.1399 77.7875 43.1169 77.7992C43.0401 77.8497 42.9595 77.8963 42.8788 77.939C42.7982 77.9817 42.7175 78.0284 42.6369 78.0711C42.5639 78.1099 42.491 78.1449 42.418 78.1837C42.4103 78.1876 42.4026 78.1876 42.3988 78.1915C42.395 78.1954 42.3911 78.1954 42.3873 78.1954C42.3527 78.2109 42.3143 78.2304 42.2836 78.2459C42.2529 78.2614 42.2222 78.2731 42.1876 78.2886L42.1838 78.2925C42.1646 78.3003 42.1454 78.3081 42.13 78.3158C42.1262 78.3197 42.1223 78.3197 42.1185 78.3236H42.1146C42.1108 78.3275 42.1108 78.3275 42.107 78.3275C42.107 78.3275 42.1031 78.3275 42.0993 78.3314C42.0916 78.3352 42.0801 78.3391 42.0724 78.343C42.0609 78.3469 42.0532 78.3508 42.0455 78.3547C42.0417 78.3585 42.0378 78.3586 42.0302 78.3624C42.0033 78.378 41.9764 78.3857 41.9534 78.3974L40.6784 78.9296L36.5081 80.6816L35.4827 81.1128L0 96.0067V86.2445C0 78.3702 4.55055 71.2224 11.6317 67.9631L27.5529 60.6404L27.6028 60.6171L27.622 60.6055L28.5705 60.8891L29.0198 61.025L41.3197 64.7038L41.3236 64.7077C41.3428 64.7155 41.3696 64.7194 41.3889 64.7271C41.4657 64.7504 41.5386 64.7776 41.6154 64.8048L41.65 64.8165C41.7383 64.8476 41.8228 64.8786 41.9111 64.9136C42.0109 64.9525 42.1031 64.9913 42.1991 65.0301C42.2951 65.0729 42.3834 65.1156 42.4756 65.1583C42.5678 65.2011 42.6561 65.2477 42.7444 65.2982C42.8251 65.3409 42.9019 65.3836 42.9825 65.4303C42.9979 65.438 43.0132 65.4458 43.0286 65.4575C43.1054 65.5041 43.1783 65.5507 43.2551 65.5973C43.3396 65.6517 43.4164 65.7022 43.4971 65.7605C43.5547 65.7993 43.6123 65.8459 43.6699 65.8887C43.7121 65.9159 43.7505 65.9469 43.7851 65.9819C43.8504 66.0324 43.9118 66.0829 43.9771 66.1373C44.0309 66.1839 44.0846 66.2305 44.1384 66.2771C44.1537 66.2888 44.1653 66.3043 44.1806 66.316C44.2459 66.3743 44.3073 66.4325 44.3649 66.4947C44.4187 66.5452 44.4686 66.5996 44.5224 66.6539C44.5493 66.6811 44.5723 66.7083 44.5954 66.7355C44.6453 66.7899 44.6914 66.8404 44.7413 66.8987C44.7874 66.9531 44.8296 67.0036 44.8757 67.0618C44.9064 67.1007 44.941 67.1395 44.9717 67.1823C45.0139 67.2328 45.0523 67.2872 45.0869 67.3415C45.1253 67.392 45.1637 67.4425 45.1982 67.4969C45.2482 67.5707 45.2981 67.6445 45.3442 67.7184C45.3941 67.7961 45.444 67.8776 45.4901 67.9592C45.5323 68.033 45.5746 68.1029 45.6091 68.1768C45.8357 68.6002 46.0162 69.043 46.1506 69.5014C46.1736 69.5752 46.1967 69.6529 46.2159 69.7306C46.2312 69.7772 46.2428 69.8277 46.2543 69.8744C46.2735 69.9404 46.2888 70.0103 46.3042 70.0803C46.3234 70.1579 46.3388 70.2356 46.3541 70.3133C46.3618 70.3638 46.3695 70.4105 46.381 70.4571C46.3887 70.5076 46.3964 70.562 46.404 70.6125C46.4309 70.7873 46.4501 70.966 46.4617 71.1408C46.4693 71.2185 46.4732 71.2923 46.477 71.37C46.454 71.4826 46.4578 71.5914 46.4578 71.7002Z" fill="url(#paint2_linear_675_1671)"/>
<path opacity="0.6" d="M26.3894 36.0188L12.3768 30.4248C12.3729 30.4248 12.3691 30.4209 12.3691 30.4209C7.5382 28.4864 7.21947 21.692 11.7623 19.3301C11.8775 19.2757 11.9889 19.2175 12.1041 19.1631L20.7175 15.2007C4.69651 24.8619 17.3113 31.0891 23.2789 34.3328C23.2827 34.3328 23.2865 34.3406 23.2904 34.3406L26.3894 36.0188Z" fill="url(#paint3_linear_675_1671)"/>
<path opacity="0.6" d="M46.4577 71.6998C46.4577 71.8629 46.4539 72.0261 46.4424 72.1892C46.4193 72.5505 46.3694 72.9118 46.2926 73.2692C46.2811 73.3236 46.2696 73.3819 46.2542 73.4362C46.1889 73.7237 46.1045 74.0034 46.0008 74.2753C45.9739 74.3414 45.947 74.4113 45.9201 74.4812C45.8587 74.6327 45.7934 74.7842 45.7166 74.9357C45.6974 74.9823 45.6705 75.0328 45.6475 75.0756C45.6436 75.0834 45.6398 75.0911 45.636 75.095C45.6052 75.1572 45.5707 75.2193 45.5361 75.2776C45.5016 75.3436 45.4631 75.4058 45.4247 75.4718C45.3479 75.6 45.2673 75.7243 45.1828 75.8486C45.1406 75.9108 45.0983 75.9691 45.0523 76.0312C45.01 76.0934 44.9639 76.1516 44.914 76.2099C44.8794 76.2565 44.841 76.3031 44.8026 76.3459C44.7873 76.3653 44.7719 76.3847 44.7527 76.4041C44.7105 76.4546 44.6644 76.5052 44.6183 76.5557C44.5684 76.6139 44.5146 76.6683 44.4609 76.7227C44.4071 76.7771 44.3534 76.8315 44.2996 76.882C44.2574 76.9247 44.2151 76.9636 44.1729 76.9985C44.1191 77.0529 44.0615 77.0995 44.0039 77.15C43.7505 77.3714 43.474 77.5734 43.1783 77.7599C43.1591 77.7716 43.1399 77.7871 43.1168 77.7988C43.04 77.8493 42.9594 77.8959 42.8787 77.9386C42.7981 77.9813 42.7175 78.028 42.6368 78.0707C42.5639 78.1095 42.4909 78.1445 42.4179 78.1833C42.4103 78.1872 42.4026 78.1872 42.3987 78.1911C42.3949 78.195 42.391 78.195 42.3872 78.195C42.3526 78.2105 42.3142 78.23 42.2835 78.2455C42.2528 78.261 42.2221 78.2727 42.1875 78.2882L42.1837 78.2921C42.1645 78.2999 42.1453 78.3077 42.1299 78.3154C42.1261 78.3193 42.1222 78.3193 42.1184 78.3232H42.1146C42.1107 78.3271 42.1107 78.3271 42.1069 78.3271C42.1069 78.3271 42.103 78.3271 42.0992 78.331C42.0915 78.3348 42.08 78.3387 42.0723 78.3426C42.0608 78.3465 42.0531 78.3504 42.0454 78.3543C42.0416 78.3582 42.0378 78.3582 42.0301 78.362C42.0032 78.3776 41.9763 78.3853 41.9533 78.397L40.6784 78.9292L36.508 80.6812C50.3171 70.9384 37.3029 65.5581 31.0857 62.1318C31.0819 62.1318 28.7241 61.1645 28.7202 61.1645L27.6143 60.6206L28.5628 60.9042L29.0121 61.0402L41.6077 64.82L41.6422 64.8316C41.7305 64.8627 41.815 64.8938 41.9034 64.9287C42.0032 64.9676 42.0954 65.0064 42.1914 65.0453C42.2874 65.088 42.3757 65.1307 42.4679 65.1735C42.56 65.2162 42.6483 65.2628 42.7367 65.3133C42.8173 65.3561 42.8941 65.3988 42.9748 65.4454C42.9901 65.4532 43.0055 65.4609 43.0208 65.4726C43.0976 65.5192 43.1706 65.5658 43.2474 65.6124C43.3319 65.6668 43.4087 65.7173 43.4893 65.7756C43.5469 65.8145 43.6045 65.8611 43.6621 65.9038C43.7044 65.931 43.7428 65.9621 43.7773 65.997C43.8426 66.0475 43.9041 66.098 43.9693 66.1524C44.0231 66.199 44.0769 66.2457 44.1306 66.2923C44.146 66.3039 44.1575 66.3195 44.1729 66.3311C44.2381 66.3894 44.2996 66.4477 44.3572 66.5098C44.411 66.5603 44.4609 66.6147 44.5146 66.6691C44.5415 66.6963 44.5646 66.7235 44.5876 66.7507C44.6375 66.8051 44.6836 66.8556 44.7335 66.9138C44.7796 66.9682 44.8218 67.0187 44.8679 67.077C44.8986 67.1158 44.9332 67.1547 44.9639 67.1974C45.0062 67.2479 45.0446 67.3023 45.0791 67.3567C45.1175 67.4072 45.1559 67.4577 45.1905 67.5121C45.2404 67.5859 45.2903 67.6597 45.3364 67.7335C45.3863 67.8112 45.4363 67.8928 45.4823 67.9743C45.5246 68.0482 45.5668 68.1181 45.6014 68.1919C45.828 68.6153 46.0084 69.0582 46.1429 69.5166C46.1659 69.5904 46.1889 69.6681 46.2081 69.7458C46.2235 69.7924 46.235 69.8429 46.2465 69.8895C46.2657 69.9555 46.2811 70.0255 46.2965 70.0954C46.3157 70.1731 46.331 70.2508 46.3464 70.3285C46.3541 70.379 46.3617 70.4256 46.3733 70.4722C46.3809 70.5227 46.3886 70.5771 46.3963 70.6276C46.4232 70.8024 46.4424 70.9811 46.4539 71.1559C46.4616 71.2336 46.4654 71.3074 46.4693 71.3851C46.4539 71.4822 46.4577 71.591 46.4577 71.6998Z" fill="url(#paint4_linear_675_1671)"/>
<path d="M52.4487 49.1918C51.1085 46.8066 48.9696 44.9031 46.3122 43.8969L26.5663 36.0149L12.377 30.3549C12.3732 30.3549 12.3732 30.351 12.3694 30.351C7.53081 28.4125 7.21976 21.5949 11.7895 19.2446C8.27196 20.9384 5.3765 23.5605 3.3374 26.746C1.21381 30.0596 0.0195312 33.9832 0.0195312 38.0971V38.9595C0.0195312 41.2748 0.457305 43.5124 1.26757 45.5674C3.22987 50.5709 7.37337 54.5449 12.7035 56.1376L27.6223 60.605L41.32 64.7034C41.3431 64.7112 41.3661 64.7151 41.3853 64.7267C47.6486 66.6652 48.2553 75.4096 42.3914 78.1911C46.9458 76.1555 50.4672 72.4767 52.3834 68.0209C53.4318 65.5852 54.0001 62.9203 54.0001 60.1622V55.116C54.004 52.9871 53.4472 50.9593 52.4487 49.1918Z" fill="url(#paint5_linear_675_1671)"/>
<defs>
<linearGradient id="paint0_linear_675_1671" x1="-6.29746" y1="40.5001" x2="56.138" y2="11.48" gradientUnits="userSpaceOnUse">
<stop stop-color="#9515E0"/>
<stop offset="0.5212" stop-color="#910BDF"/>
<stop offset="0.6168" stop-color="#921CDF"/>
<stop offset="0.8051" stop-color="#9347E0"/>
<stop offset="0.9974" stop-color="#9579E0"/>
</linearGradient>
<linearGradient id="paint1_linear_675_1671" x1="41.9821" y1="78.3091" x2="42.2879" y2="78.3091" gradientUnits="userSpaceOnUse">
<stop stop-color="#910BFF"/>
<stop offset="0.5" stop-color="#BC0CB7"/>
<stop offset="1" stop-color="#F91E85"/>
</linearGradient>
<linearGradient id="paint2_linear_675_1671" x1="60.7152" y1="58.3051" x2="0.270229" y2="83.8088" gradientUnits="userSpaceOnUse">
<stop stop-color="#C42877"/>
<stop offset="0.3095" stop-color="#C42877"/>
<stop offset="0.5347" stop-color="#D0348F"/>
<stop offset="0.9762" stop-color="#ED50C9"/>
</linearGradient>
<linearGradient id="paint3_linear_675_1671" x1="9.66148" y1="23.2323" x2="23.425" y2="25.5361" gradientUnits="userSpaceOnUse">
<stop stop-color="#6F6F6E"/>
<stop offset="0.119" stop-color="#6F6F6E" stop-opacity="0.881"/>
<stop offset="1" stop-color="#6F6F6E" stop-opacity="0"/>
</linearGradient>
<linearGradient id="paint4_linear_675_1671" x1="25.1946" y1="58.167" x2="59.9578" y2="92.5312" gradientUnits="userSpaceOnUse">
<stop stop-color="#6F6F6E"/>
<stop offset="0.119" stop-color="#6F6F6E" stop-opacity="0.881"/>
<stop offset="1" stop-color="#6F6F6E" stop-opacity="0"/>
</linearGradient>
<linearGradient id="paint5_linear_675_1671" x1="-5.43794" y1="27.8654" x2="53.9695" y2="65.0811" gradientUnits="userSpaceOnUse">
<stop stop-color="#910BFF"/>
<stop offset="0.4101" stop-color="#BC0CB7"/>
<stop offset="0.918" stop-color="#C42776"/>
<stop offset="0.9497" stop-color="#C52972"/>
</linearGradient>
</defs>
</svg>
