<svg width="36" height="36" viewBox="0 0 36 36" fill="none" xmlns="http://www.w3.org/2000/svg">
<path fill-rule="evenodd" clip-rule="evenodd" d="M10.875 9.94655V8.19189C10.875 6.89252 11.8256 5.78868 13.1106 5.59593L14.9405 5.32145C16.9688 5.0172 19.0312 5.0172 21.0595 5.32145L22.8894 5.59593C24.1744 5.78868 25.125 6.89252 25.125 8.19189V9.94656L27.6961 10.1541C29.6646 10.313 31.2704 11.7952 31.5862 13.7448C32.284 18.0536 32.284 22.4466 31.5862 26.7554C31.2704 28.705 29.6646 30.1872 27.6961 30.3461L24.8882 30.5727C20.3035 30.9428 15.6965 30.9428 11.1118 30.5727L8.30395 30.3461C6.33537 30.1872 4.72956 28.705 4.41384 26.7554C3.71606 22.4466 3.71606 18.0536 4.41384 13.7448C4.72956 11.7952 6.33537 10.313 8.30395 10.1541L10.875 9.94655ZM15.2743 7.54656C17.0813 7.2755 18.9187 7.2755 20.7258 7.54656L22.5556 7.82104C22.7392 7.84857 22.875 8.00627 22.875 8.19189V9.7888C19.6277 9.60358 16.3724 9.60358 13.125 9.7888V8.19189C13.125 8.00626 13.2608 7.84857 13.4444 7.82104L15.2743 7.54656ZM11.2929 12.1701C15.757 11.8098 20.243 11.8098 24.7072 12.1701L27.515 12.3968C28.4513 12.4724 29.215 13.1773 29.3651 14.1045C29.4586 14.6819 29.5388 15.2609 29.6058 15.841C22.2894 19.4437 13.7106 19.4437 6.39418 15.841C6.46116 15.2609 6.5414 14.6819 6.6349 14.1045C6.78506 13.1773 7.54875 12.4724 8.48498 12.3968L11.2929 12.1701ZM6.19335 18.2351C13.6925 21.6457 22.3076 21.6457 29.8067 18.2351C29.9496 20.9593 29.8025 23.695 29.3651 26.3957C29.215 27.3229 28.4513 28.0278 27.515 28.1034L24.7072 28.33C20.243 28.6904 15.757 28.6904 11.2929 28.33L8.48498 28.1034C7.54875 28.0278 6.78506 27.3229 6.6349 26.3957C6.19755 23.695 6.05036 20.9593 6.19335 18.2351Z" fill="#7E7E7E"/>
</svg>
