<svg width="24" height="24" viewBox="0 0 24 24" fill="none" xmlns="http://www.w3.org/2000/svg">
<path opacity="0.15" d="M4 8C4 5.79086 5.79086 4 8 4H16C18.2091 4 20 5.79086 20 8V16C20 18.2091 18.2091 20 16 20H8C5.79086 20 4 18.2091 4 16V8Z" fill="#9A60F9"/>
<path d="M17.5303 9.53033C17.8232 9.23744 17.8232 8.76256 17.5303 8.46967C17.2374 8.17678 16.7626 8.17678 16.4697 8.46967L17.5303 9.53033ZM9.99998 16L9.46965 16.5304C9.76255 16.8232 10.2374 16.8232 10.5303 16.5303L9.99998 16ZM7.53027 12.4697C7.23737 12.1768 6.7625 12.1768 6.46961 12.4697C6.17671 12.7626 6.17672 13.2374 6.46961 13.5303L7.53027 12.4697ZM16.4697 8.46967L9.46965 15.4697L10.5303 16.5303L17.5303 9.53033L16.4697 8.46967ZM6.46961 13.5303L9.46965 16.5304L10.5303 15.4697L7.53027 12.4697L6.46961 13.5303ZM8 4.75H16V3.25H8V4.75ZM19.25 8V16H20.75V8H19.25ZM16 19.25H8V20.75H16V19.25ZM4.75 16V8H3.25V16H4.75ZM8 19.25C6.20507 19.25 4.75 17.7949 4.75 16H3.25C3.25 18.6234 5.37665 20.75 8 20.75V19.25ZM19.25 16C19.25 17.7949 17.7949 19.25 16 19.25V20.75C18.6234 20.75 20.75 18.6234 20.75 16H19.25ZM16 4.75C17.7949 4.75 19.25 6.20507 19.25 8H20.75C20.75 5.37665 18.6234 3.25 16 3.25V4.75ZM8 3.25C5.37665 3.25 3.25 5.37665 3.25 8H4.75C4.75 6.20507 6.20507 4.75 8 4.75V3.25Z" fill="#9A60F9"/>
</svg>
