<svg width="11" height="9" viewBox="0 0 11 9" fill="none" xmlns="http://www.w3.org/2000/svg">
<path d="M0.0113637 9H3.64773V6.52273C3.64773 4.73864 4.23864 3.34091 5.09091 2L2.95455 0.738636C1.375 2.02273 0.0113637 4.46591 0.0113637 6.54545V9ZM5.75 9H9.38636V6.52273C9.38636 4.73864 9.97727 3.34091 10.8295 2L8.69318 0.738636C7.11364 2.02273 5.75 4.46591 5.75 6.54545V9Z" fill="black"/>
</svg>
