<svg width="24" height="24" viewBox="0 0 24 24" fill="none" xmlns="http://www.w3.org/2000/svg">
<path d="M14.25 10.5C14.25 10.9142 14.5858 11.25 15 11.25C15.4142 11.25 15.75 10.9142 15.75 10.5H14.25ZM8.46358 4.75007C8.32554 5.1406 8.53023 5.56909 8.92077 5.70713C9.31131 5.84517 9.7398 5.64047 9.87784 5.24993L8.46358 4.75007ZM6.75 12C6.75 11.5858 6.41421 11.25 6 11.25C5.58579 11.25 5.25 11.5858 5.25 12H6.75ZM13.6869 18.5373C14.0881 18.4341 14.3296 18.0252 14.2263 17.624C14.1231 17.2229 13.7142 16.9814 13.3131 17.0846L13.6869 18.5373ZM18.75 12C18.75 11.5858 18.4142 11.25 18 11.25C17.5858 11.25 17.25 11.5858 17.25 12H18.75ZM17.0846 13.3131C16.9814 13.7142 17.2229 14.1231 17.624 14.2263C18.0252 14.3296 18.4341 14.0881 18.5373 13.6869L17.0846 13.3131ZM15 21.75C15.4142 21.75 15.75 21.4142 15.75 21C15.75 20.5858 15.4142 20.25 15 20.25V21.75ZM9 20.25C8.58579 20.25 8.25 20.5858 8.25 21C8.25 21.4142 8.58579 21.75 9 21.75V20.25ZM3.53033 2.46967C3.23744 2.17678 2.76256 2.17678 2.46967 2.46967C2.17678 2.76256 2.17678 3.23744 2.46967 3.53033L3.53033 2.46967ZM20.4697 21.5303C20.7626 21.8232 21.2374 21.8232 21.5303 21.5303C21.8232 21.2374 21.8232 20.7626 21.5303 20.4697L20.4697 21.5303ZM12 3.75C13.2426 3.75 14.25 4.75736 14.25 6H15.75C15.75 3.92893 14.0711 2.25 12 2.25V3.75ZM14.25 6V10.5H15.75V6H14.25ZM12 2.25C10.3661 2.25 8.97801 3.29459 8.46358 4.75007L9.87784 5.24993C10.1871 4.37503 11.0215 3.75 12 3.75V2.25ZM12 17.25C9.1005 17.25 6.75 14.8995 6.75 12H5.25C5.25 15.7279 8.27208 18.75 12 18.75V17.25ZM13.3131 17.0846C12.8942 17.1925 12.4544 17.25 12 17.25V18.75C12.5815 18.75 13.147 18.6763 13.6869 18.5373L13.3131 17.0846ZM17.25 12C17.25 12.4544 17.1925 12.8942 17.0846 13.3131L18.5373 13.6869C18.6763 13.147 18.75 12.5815 18.75 12H17.25ZM11.25 18V21H12.75V18H11.25ZM12 21.75H15V20.25H12V21.75ZM12 20.25H9V21.75H12V20.25ZM2.46967 3.53033L20.4697 21.5303L21.5303 20.4697L3.53033 2.46967L2.46967 3.53033Z" fill="currentColor"/>
</svg>
