<svg width="14" height="14" viewBox="0 0 14 14" fill="none" xmlns="http://www.w3.org/2000/svg">
<path d="M7.74984 10.3268C7.74984 9.91256 7.41405 9.57677 6.99984 9.57677C6.58562 9.57677 6.24984 9.91256 6.24984 10.3268H7.74984ZM6.24984 10.3334C6.24984 10.7476 6.58562 11.0834 6.99984 11.0834C7.41405 11.0834 7.74984 10.7476 7.74984 10.3334H6.24984ZM6.24984 8.33341C6.24984 8.74763 6.58562 9.08341 6.99984 9.08341C7.41405 9.08341 7.74984 8.74763 7.74984 8.33341H6.24984ZM4.27571 4.92601C4.16786 5.32594 4.40463 5.73758 4.80456 5.84542C5.20448 5.95327 5.61612 5.7165 5.72397 5.31657L4.27571 4.92601ZM6.24984 10.3268V10.3334H7.74984V10.3268H6.24984ZM8.24984 5.60614C8.24984 5.85563 8.12777 5.99754 7.57733 6.37283C7.15107 6.66347 6.24984 7.20867 6.24984 8.33341H7.74984C7.74984 8.12482 7.8486 8.00336 8.42234 7.61218C8.87191 7.30565 9.74984 6.7506 9.74984 5.60614H8.24984ZM6.99984 4.41675C7.7254 4.41675 8.24984 4.96658 8.24984 5.60614H9.74984C9.74984 4.10351 8.51876 2.91675 6.99984 2.91675V4.41675ZM5.72397 5.31657C5.85443 4.83279 6.36498 4.41675 6.99984 4.41675V2.91675C5.74102 2.91675 4.59639 3.73684 4.27571 4.92601L5.72397 5.31657ZM4.33317 2.41675H9.6665V0.916748H4.33317V2.41675ZM11.5832 4.33341V9.66675H13.0832V4.33341H11.5832ZM9.6665 11.5834H4.33317V13.0834H9.6665V11.5834ZM2.4165 9.66675V4.33341H0.916504V9.66675H2.4165ZM4.33317 11.5834C3.27462 11.5834 2.4165 10.7253 2.4165 9.66675H0.916504C0.916504 11.5537 2.4462 13.0834 4.33317 13.0834V11.5834ZM11.5832 9.66675C11.5832 10.7253 10.725 11.5834 9.6665 11.5834V13.0834C11.5535 13.0834 13.0832 11.5537 13.0832 9.66675H11.5832ZM9.6665 2.41675C10.725 2.41675 11.5832 3.27487 11.5832 4.33341H13.0832C13.0832 2.44644 11.5535 0.916748 9.6665 0.916748V2.41675ZM4.33317 0.916748C2.4462 0.916748 0.916504 2.44644 0.916504 4.33341H2.4165C2.4165 3.27487 3.27462 2.41675 4.33317 2.41675V0.916748Z" fill="currentColor"/>
</svg>
