<svg width="82" height="196" viewBox="0 0 82 196" fill="none" xmlns="http://www.w3.org/2000/svg">
<path d="M23.06 62.28L16.56 59.07L12.94 63.96L21.05 67.99L23.06 62.28Z" fill="#FFC9A6"/>
<path d="M6.19002 56.87C5.66002 60.19 7.88001 63.36 11.15 63.95C14.42 64.54 17.5 62.32 18.03 58.99C18.56 55.67 16.34 52.5 13.07 51.91C9.80002 51.32 6.72002 53.54 6.19002 56.87Z" fill="#FFC9A6"/>
<path d="M0.240024 49.7C-0.0499757 50.34 0.240014 51.11 0.870014 51.42L15.18 58.23C15.81 58.53 16.57 58.25 16.86 57.61C17.15 56.97 16.86 56.19 16.23 55.89L1.92002 49.08C1.28002 48.78 0.530024 49.06 0.240024 49.7Z" fill="black"/>
<path d="M50.71 43.32L36.74 68.92L20.35 59.99L17.84 67.88L38.49 81.81C40.14 82.72 42.18 82.08 43 80.38L57.97 61.55L50.71 43.32Z" fill="#EAD1B9"/>
<path d="M60.91 33.09L61.56 32.63C63.72 31.11 67 32.24 65.51 30.03L52.92 11.23L45.15 16.7L55.48 32.06C56.71 33.88 59.14 34.34 60.91 33.09Z" fill="#FCC9A7"/>
<path d="M38.62 20.49C41.24 25.63 47.44 27.61 52.45 24.93C57.47 22.25 59.41 15.91 56.79 10.78C53.63 4.59 48.51 3.37 42.96 6.34C37.94 9.02 36 15.36 38.62 20.49Z" fill="#FCC9A7"/>
<path d="M51.27 30.5C53.65 29.23 54.58 26.22 53.33 23.78L48.79 14.88L38.55 20.35L42.25 27.61C43.96 30.95 48 32.25 51.27 30.5Z" fill="#FCC9A7"/>
<path d="M39.95 22.43L39.49 26.48C39.46 27.12 40.13 27.52 40.71 27.21L43.24 26.43L39.95 22.43Z" fill="#FCC9A7"/>
<path d="M53.36 17.74L58.44 19.47C58.44 19.47 62.32 2.89999 49.88 0.859995C49.88 0.859995 39.48 0.239994 35.61 9.13999C34.51 11.68 34.61 15.62 37.46 16.21C37.46 16.21 37.48 16.43 37.46 16.21C37.27 13.98 38.08 12.04 38.08 12.04C38.08 12.04 40.5 17.95 45.41 17.38L46.83 19.57C47.37 20.4 49.01 20.08 49.87 19.61L50.84 19.09L49.54 16.53L53.36 17.74Z" fill="#0B1226"/>
<path d="M48.61 14.67C47.57 15.85 47.67 17.68 48.82 18.74C49.98 19.8 51.76 19.71 52.8 18.52C53.84 17.34 53.74 15.51 52.59 14.45C51.43 13.39 49.65 13.48 48.61 14.67Z" fill="#FCC9A7"/>
<path d="M78.4 179.15L80.18 188.31L73.75 189.67L71.56 180.32L78.4 179.15Z" fill="#FCC9A7"/>
<path d="M81.35 187.76C81.17 187.28 80.59 187.11 80.2 187.43C79.43 188.05 78.05 188.81 76 188.65C73.88 188.48 73.08 187.37 72.78 186.57C72.62 186.15 72.17 185.94 71.76 186.12L58.88 192.04C58.1 192.4 57.49 193.06 57.18 193.88C56.89 194.65 57.47 195.47 58.27 195.44L80.52 194.68C81.4 194.65 82.07 193.88 81.99 192.98L81.62 188.6C81.61 188.53 81.6 188.46 81.57 188.39L81.35 187.76Z" fill="#0C0C0C"/>
<path d="M56.12 178.75L55.47 188.06L48.93 187.64L49.21 178.03L56.12 178.75Z" fill="#FCC9A7"/>
<path d="M47.01 80.89L47.2 181.05H58.61L62.31 93.24L47.01 80.89Z" fill="#0C0C0C"/>
<path d="M51.38 35.85C51.38 35.85 53.14 31.86 54.95 30.95C56.76 30.04 64.99 28.85 64.99 28.85C64.99 28.85 74.37 35.21 74.23 46.6L73.41 80.89H47C47.01 80.89 45.04 49.93 51.38 35.85Z" fill="#F7E0C6"/>
<path d="M47.01 80.89L51.68 95.35L57.42 135.01L69.41 182.06L80.56 180.75L71.35 134.5L71.61 99.84C71.61 99.84 72.17 96.66 70.57 80.9H47.01V80.89Z" fill="#232322"/>
<path d="M62.78 116.72C63.02 120.36 66.1 123.12 69.66 122.88C73.22 122.64 75.92 119.49 75.68 115.84C75.44 112.19 72.36 109.44 68.8 109.68C65.24 109.92 62.54 113.07 62.78 116.72Z" fill="#FCC9A7"/>
<path d="M66.3066 112.828H72.9566V100.338H66.3066V112.828Z" fill="#FCC9A7"/>
<path d="M73.99 45.47V103.3H64.85L61.62 42.5C61.47 39.61 62.68 36.77 64.97 35.08C67.58 33.16 71.08 32.99 73.55 42.18C73.85 43.25 73.99 44.36 73.99 45.47Z" fill="#F7E0C6"/>
<path d="M73.99 103.3V99.42H64.65L64.86 103.3H73.99Z" fill="#FFEEE3"/>
<path d="M57.1 186.28C56.94 185.79 56.37 185.59 55.96 185.89C55.16 186.47 53.74 187.16 51.71 186.9C49.6 186.63 48.85 185.48 48.59 184.66C48.45 184.23 48.01 184 47.6 184.16L34.46 189.43C33.66 189.75 33.02 190.38 32.68 191.19C32.36 191.95 32.89 192.79 33.7 192.81L55.96 193.15C56.84 193.16 57.54 192.42 57.51 191.53L57.35 187.13C57.35 187.06 57.33 186.99 57.31 186.92L57.1 186.28Z" fill="#0C0C0C"/>
<path d="M62.31 50.51L63.67 80.89L62.31 50.51Z" stroke="#E8CCB1" stroke-width="0.7847" stroke-miterlimit="10" stroke-linecap="round" stroke-linejoin="round"/>
<path d="M41.36 13.15C41.36 13.15 34 24.02 31.6 14.7C29.2 5.38 44.66 8.15 44.66 8.15L41.36 13.15Z" fill="#0B1226"/>
<path d="M64.99 28.85C64.99 28.85 53.81 40.08 52.45 33.79C52.45 33.79 53.66 30.76 57.96 28.5L64.99 28.85Z" fill="#FCC9A7"/>
<path d="M20.35 59.98L17.84 67.87L20.9 69.93L23.65 61.78L20.35 59.98Z" fill="#FFEEE3"/>
</svg>
