<svg width="118" height="194" viewBox="0 0 118 194" fill="none" xmlns="http://www.w3.org/2000/svg">
<path d="M42.53 5.54999C42.53 5.54999 39.74 5.77 39.5 9.63C39.26 13.49 39.24 24.69 44.48 25.38C49.72 26.07 45.95 6.98001 45.95 6.98001L42.53 5.54999Z" fill="#1C2226"/>
<path d="M60.73 9.01001C60.73 9.01001 62.85 14.92 58.62 16C54.38 17.08 55.17 8.51001 55.17 8.51001L60.73 9.01001Z" fill="#1C2226"/>
<path d="M36.63 46.13L23.52 64.61L24.25 62.88L18.2 90L11.46 88.74L15.63 61.27C15.72 60.67 15.95 60.13 16.27 59.67L16.36 59.54L29.47 41.06L36.63 46.13Z" fill="#FCC9A7"/>
<path d="M13.18 98.32C9.73 97.29 7.78 93.65 8.81 90.21C9.84 86.76 13.48 84.81 16.92 85.84C20.37 86.87 22.32 90.51 21.29 93.95C20.26 97.39 16.63 99.35 13.18 98.32Z" fill="#FCC9A7"/>
<path d="M65.01 45.5L73.3 70.84L68.85 67.82L95.85 67.09L96.28 73.94L69.4 76.59C67.4 76.79 65.6 75.55 65 73.72L64.95 73.57L56.66 48.23L65.01 45.5Z" fill="#FCC9A7"/>
<path d="M63.54 175.11L67.6 186.3L73.54 180.96L69.75 171.99L63.54 175.11Z" fill="#FCC9A7"/>
<path d="M65.25 183.71C65.25 183.16 65.72 182.8 66.19 183C67.11 183.39 68.64 183.73 70.45 182.92C72.34 182.07 72.69 180.68 72.69 179.76C72.69 179.28 73.03 178.92 73.47 178.98L87.3 180.97C88.14 181.09 88.93 181.58 89.49 182.33C90.02 183.03 89.77 184.06 89.03 184.28L68.38 190.56C67.57 190.81 66.69 190.22 66.45 189.28L65.28 184.66C65.26 184.58 65.25 184.5 65.25 184.43V183.71Z" fill="#1F252A"/>
<path d="M9.54001 167.51L5.04001 176.32L10.28 180.8L15.94 170.23L9.54001 167.51Z" fill="#FCC9A7"/>
<path d="M4.10001 174.38C4.52001 174.03 5.1 174.15 5.25 174.64C5.55 175.6 6.27001 176.98 8.07001 177.84C9.94001 178.73 11.23 178.09 11.93 177.5C12.3 177.19 12.8 177.22 13.03 177.59L20.47 189.42C20.92 190.14 21.06 191.05 20.85 191.96C20.66 192.82 19.72 193.29 19.06 192.87L0.899994 181.19C0.189994 180.73 0.059995 179.68 0.619995 178.89L3.39001 175.01C3.44001 174.95 3.48999 174.89 3.54999 174.84L4.10001 174.38Z" fill="#1F252A"/>
<path d="M58.95 84.87L41.19 134.14L16.05 175.8L4.84 170.26L27.19 128.73L39.45 87.19L58.95 84.87Z" fill="#092330"/>
<path d="M31.51 85.6C31.51 85.6 28.15 91.95 33.37 102.1L49.58 133.03L61.93 179.91L74.2 175.63L62.46 128.22L49.77 91.23L58.96 84.88L31.51 85.6Z" fill="#0C2C40"/>
<path d="M46.8 30.86L32.97 33.7C31.34 34.03 29.9 34.97 28.93 36.32L20.13 48.58L31.89 56.27L27.65 89.84C27.65 89.84 32.44 104.5 61.66 92.81C61.66 92.81 59.14 64.99 60.83 46.87L59.97 34.94L46.8 30.86Z" fill="#DF945B"/>
<path d="M59.98 34.93L62.28 35.77C64.18 36.46 65.66 37.99 66.29 39.92L71.08 54.53L57 57.13L59.98 34.93Z" fill="#DF945B"/>
<path d="M104.83 68.56C104.83 72.16 101.91 75.08 98.31 75.08C94.71 75.08 91.8 72.16 91.8 68.56C91.8 64.96 94.72 62.05 98.31 62.05C101.91 62.05 104.83 64.96 104.83 68.56Z" fill="#FCC9A7"/>
<path d="M50.71 35.09L49.14 35.96C46.09 35.71 43.22 35.06 43.47 32.01L44.2 23.07L55.25 23.98L54.52 32.92C54.27 35.97 53.76 35.34 50.71 35.09Z" fill="#FCC9A7"/>
<path d="M44.05 24.15C44.05 24.15 45.57 30.77 51.13 30.54C55.99 30.33 55.53 23.07 55.53 23.07L44.05 24.15Z" fill="#F4BE9A"/>
<path d="M50.18 28.19L49.24 28.09C44.54 27.58 41.14 23.36 41.64 18.65L42.22 13.29C42.73 8.59 46.95 5.18999 51.66 5.68999L52.6 5.79C57.3 6.3 60.7 10.52 60.2 15.23L59.62 20.59C59.11 25.29 54.89 28.69 50.18 28.19Z" fill="#FCC9A7"/>
<path d="M32.7 53.93L36.26 49.73" stroke="#CE804A" stroke-width="0.7693" stroke-miterlimit="10" stroke-linecap="round" stroke-linejoin="round"/>
<path d="M60.3 56.52L60.84 47.85" stroke="#CE804A" stroke-width="0.7693" stroke-miterlimit="10" stroke-linecap="round" stroke-linejoin="round"/>
<path d="M50.71 35.09L43.69 30.85C40.69 29.6 38.78 32.5 38.78 32.5L47.14 40.7L50.71 35.09Z" fill="#EDA472"/>
<path d="M50.71 35.09L54.11 40.35L57.51 34.16C57.51 34.16 56.17 32.05 54.34 32.54L50.71 35.09Z" fill="#EDA472"/>
<path d="M69.03 68.83H111.52C112.23 68.83 112.8 68.26 112.8 67.55C112.8 66.84 112.23 66.27 111.52 66.27H69.03C68.32 66.27 67.75 66.84 67.75 67.55C67.75 68.25 68.32 68.83 69.03 68.83Z" fill="#D1D1D1"/>
<path d="M112.8 67.22L117.88 42.54C118.01 41.93 117.54 41.35 116.91 41.35H91.06C90.59 41.35 90.18 41.68 90.09 42.15L85.08 67.23H112.8V67.22Z" fill="#D1D1D1"/>
<path d="M115.01 43.23L110.27 65.62H86.83L91.57 43.23H115.01Z" fill="#EFEFEF"/>
<path d="M42.78 17.37H45.65L46.21 14.22C46.21 14.22 49.21 12.61 48.63 9.49999C48.63 9.49999 61.26 14.03 63.23 8.98998C65.83 2.33998 56.4 0.689999 48.63 0.879999C40.86 1.06 41.42 10.98 41.42 10.98L42.78 17.37Z" fill="#1C2226"/>
<path d="M44.46 16.74C44.28 18.42 42.77 19.63 41.09 19.45C39.41 19.27 38.2 17.76 38.38 16.08C38.56 14.4 40.07 13.19 41.75 13.37C43.43 13.55 44.64 15.06 44.46 16.74Z" fill="#FCC9A7"/>
</svg>
