<svg width="11" height="9" viewBox="0 0 11 9" fill="none" xmlns="http://www.w3.org/2000/svg">
<path d="M5.25426 0.727272H1.6179V3.20454C1.6179 5.125 0.93608 6.52273 0.174716 7.72727L2.31108 8.98864C3.91335 7.64773 5.25426 5.26136 5.25426 3.18182V0.727272ZM10.9588 0.727272H7.32244V3.20454C7.32244 5.125 6.64062 6.52273 5.87926 7.72727L8.01562 8.98864C9.6179 7.64773 10.9588 5.26136 10.9588 3.18182V0.727272Z" fill="black"/>
</svg>
