<svg width="19" height="12" viewBox="0 0 19 12" fill="none" xmlns="http://www.w3.org/2000/svg">
<path d="M6 1V0.25C5.80109 0.25 5.61032 0.329018 5.46967 0.46967L6 1ZM18 1H18.75C18.75 0.585786 18.4142 0.25 18 0.25V1ZM18 11V11.75C18.4142 11.75 18.75 11.4142 18.75 11H18ZM6 11L5.46967 11.5303C5.61032 11.671 5.80109 11.75 6 11.75V11ZM1 6L0.46967 5.46967C0.176777 5.76256 0.176777 6.23744 0.46967 6.53033L1 6ZM6 1.75H18V0.25H6V1.75ZM17.25 1V11H18.75V1H17.25ZM18 10.25H6V11.75H18V10.25ZM6.53033 10.4697L1.53033 5.46967L0.46967 6.53033L5.46967 11.5303L6.53033 10.4697ZM1.53033 6.53033L6.53033 1.53033L5.46967 0.46967L0.46967 5.46967L1.53033 6.53033ZM8.25 6C8.25 6.41421 7.91421 6.75 7.5 6.75V8.25C8.74264 8.25 9.75 7.24264 9.75 6H8.25ZM7.5 6.75C7.08579 6.75 6.75 6.41421 6.75 6H5.25C5.25 7.24264 6.25736 8.25 7.5 8.25V6.75ZM6.75 6C6.75 5.58579 7.08579 5.25 7.5 5.25V3.75C6.25736 3.75 5.25 4.75736 5.25 6H6.75ZM7.5 5.25C7.91421 5.25 8.25 5.58579 8.25 6H9.75C9.75 4.75736 8.74264 3.75 7.5 3.75V5.25Z" fill="currentColor"/>
</svg>
