<svg width="12" height="12" viewBox="0 0 12 12" fill="none" xmlns="http://www.w3.org/2000/svg">
<path d="M5.30027 0.685355C5.68905 0.304565 6.31095 0.304565 6.69973 0.685356L7.48073 1.45031C7.66507 1.63086 7.91206 1.73317 8.17008 1.73585L9.26324 1.74719C9.8074 1.75284 10.2472 2.1926 10.2528 2.73676L10.2642 3.82992C10.2668 4.08794 10.3691 4.33493 10.5497 4.51927L11.3146 5.30027C11.6954 5.68905 11.6954 6.31095 11.3146 6.69973L10.5497 7.48073C10.3691 7.66507 10.2668 7.91206 10.2642 8.17008L10.2528 9.26324C10.2472 9.8074 9.8074 10.2472 9.26324 10.2528L8.17008 10.2642C7.91206 10.2668 7.66507 10.3691 7.48073 10.5497L6.69973 11.3146C6.31095 11.6954 5.68905 11.6954 5.30027 11.3146L4.51927 10.5497C4.33493 10.3691 4.08794 10.2668 3.82992 10.2642L2.73676 10.2528C2.1926 10.2472 1.75284 9.8074 1.74719 9.26324L1.73585 8.17008C1.73317 7.91206 1.63086 7.66507 1.45031 7.48073L0.685355 6.69973C0.304565 6.31095 0.304565 5.68905 0.685356 5.30027L1.45031 4.51927C1.63086 4.33493 1.73317 4.08794 1.73585 3.82992L1.74719 2.73676C1.75284 2.1926 2.1926 1.75284 2.73676 1.74719L3.82992 1.73585C4.08794 1.73317 4.33493 1.63086 4.51927 1.45031L5.30027 0.685355Z" fill="currentColor"/>
<path d="M7.66661 5L5.33327 7.33334L4.33325 6.33333" stroke="white" stroke-width="1.5" stroke-linecap="round" stroke-linejoin="round"/>
</svg>
