<svg width="20" height="16" viewBox="0 0 20 16" fill="none" xmlns="http://www.w3.org/2000/svg">
<path fill-rule="evenodd" clip-rule="evenodd" d="M1 0C0.447715 0 0 0.447715 0 1V14C0 15.1046 0.895431 16 2 16H14C15.1046 16 16 15.1046 16 14V12C16 10.8954 15.1046 10 14 10H11.7324C11.9026 9.70583 12 9.36429 12 9V7C12 6.63571 11.9026 6.29417 11.7324 6H18C19.1046 6 20 5.10457 20 4V2C20 0.895431 19.1046 0 18 0H1ZM1.5 1.5V4.5H18C18.2761 4.5 18.5 4.27614 18.5 4V2C18.5 1.72386 18.2761 1.5 18 1.5H1.5ZM10 6.5H1.5V9.5H10C10.2761 9.5 10.5 9.27614 10.5 9V7C10.5 6.72386 10.2761 6.5 10 6.5ZM1.5 11.5H14C14.2761 11.5 14.5 11.7239 14.5 12V14C14.5 14.2761 14.2761 14.5 14 14.5H2C1.72386 14.5 1.5 14.2761 1.5 14V11.5Z" fill="currentColor"/>
</svg>
